[gd_scene format=2]

[node name="Aiming Assistant" type="Node2D"]
position = Vector2( -42.7501, -19.95 )

[node name="Trailing" type="Line2D" parent="."]
position = Vector2( 515.29, 482.185 )
points = PoolVector2Array( 0, 0, -150, -300 )
width = 5.0
default_color = Color( 1, 1, 1, 0.156863 )
begin_cap_mode = 2
end_cap_mode = 2

[node name="General" type="Line2D" parent="."]
position = Vector2( 515.29, 482.185 )
points = PoolVector2Array( 0, 0, -50, -100 )
width = 5.0
default_color = Color( 1, 0.741176, 0.411765, 1 )
begin_cap_mode = 2
end_cap_mode = 2

[node name="Arrows" type="Line2D" parent="."]
position = Vector2( 515.29, 482.185 )
points = PoolVector2Array( -55, -75, -50, -100, -27.2011, -90.2276 )
width = 5.0
default_color = Color( 1, 0.741176, 0.411765, 1 )
begin_cap_mode = 2
end_cap_mode = 2
