[gd_scene load_steps=3 format=2]

[ext_resource path="res://Textures/icon.png" type="Texture" id=1]

[sub_resource type="RectangleShape2D" id=3]
extents = Vector2( 18, 18 )

[node name="Target" type="RigidBody2D"]
position = Vector2( 144, 473.001 )
gravity_scale = 0.0

[node name="Sprite" type="Sprite" parent="."]
scale = Vector2( 0.6, 0.6 )
texture = ExtResource( 1 )

[node name="CollisionShape2D" type="CollisionShape2D" parent="."]
visible = false
shape = SubResource( 3 )
